*** Life<ConwayCell> 16x10 ***

Generation = 0, Population = 9.
..........
.......*..
..........
..........
.*....*...
..........
...*......
..........
..........
.*...*..*.
......*...
..........
..........
......*...
..........
..........

Generation = 1, Population = 0.
..........
..........
..........
..........
..........
..........
..........
..........
..........
..........
..........
..........
..........
..........
..........
..........

Generation = 2, Population = 0.
..........
..........
..........
..........
..........
..........
..........
..........
..........
..........
..........
..........
..........
..........
..........
..........

*** Life<ConwayCell> 8x6 ***

Generation = 0, Population = 9.
......
.....*
......
.*.*..
......
..**..
...*..
.*..**

Generation = 2, Population = 8.
......
......
......
......
..**..
..***.
..***.
......

Generation = 4, Population = 5.
......
......
......
......
......
.**...
..**..
...*..

*** Life<ConwayCell> 19x3 ***

Generation = 0, Population = 9.
...
*..
...
...
.*.
...
...
...
**.
...
...
...
...
*.*
..*
...
.*.
...
.*.

Generation = 2, Population = 0.
...
...
...
...
...
...
...
...
...
...
...
...
...
...
...
...
...
...
...

Generation = 4, Population = 0.
...
...
...
...
...
...
...
...
...
...
...
...
...
...
...
...
...
...
...

*** Life<ConwayCell> 9x3 ***

Generation = 0, Population = 7.
.*.
.*.
*..
...
..*
*..
.**
...
...

Generation = 2, Population = 0.
...
...
...
...
...
...
...
...
...

Generation = 4, Population = 0.
...
...
...
...
...
...
...
...
...

*** Life<ConwayCell> 6x9 ***

Generation = 0, Population = 8.
...*.....
...**....
......*.*
.........
....*....
..*...*..

Generation = 2, Population = 4.
...**....
...**....
.........
.........
.........
.........

Generation = 4, Population = 4.
...**....
...**....
.........
.........
.........
.........

*** Life<ConwayCell> 5x9 ***

Generation = 0, Population = 9.
.......**
.*.....*.
.*...*.*.
........*
...*.....

Generation = 1, Population = 6.
.......**
.......*.
......***
.........
.........

Generation = 2, Population = 6.
.......**
.........
......***
.......*.
.........

Generation = 3, Population = 7.
.........
......*..
......***
......***
.........

Generation = 4, Population = 6.
.........
......*..
.....*..*
......*.*
.......*.

Generation = 5, Population = 5.
.........
.........
.....**..
......*.*
.......*.

*** Life<ConwayCell> 16x12 ***

Generation = 0, Population = 10.
............
...*...*..*.
.....*....*.
............
....*.......
............
.....*......
............
............
............
...........*
............
............
.*..........
*...........
............

Generation = 5, Population = 0.
............
............
............
............
............
............
............
............
............
............
............
............
............
............
............
............

*** Life<ConwayCell> 2x12 ***

Generation = 0, Population = 9.
*.***......*
...**..*...*

Generation = 1, Population = 4.
..*.*.......
..*.*.......

Generation = 2, Population = 0.
............
............

*** Life<ConwayCell> 19x3 ***

Generation = 0, Population = 9.
...
...
*..
*..
...
.*.
...
...
.*.
.*.
*.*
.*.
...
...
...
...
...
...
.*.

Generation = 1, Population = 6.
...
...
...
...
...
...
...
...
...
***
*.*
.*.
...
...
...
...
...
...
...

Generation = 2, Population = 6.
...
...
...
...
...
...
...
...
.*.
*.*
*.*
.*.
...
...
...
...
...
...
...

*** Life<ConwayCell> 10x16 ***

Generation = 0, Population = 8.
................
..*.............
................
.*..............
..........*..*..
..........*.....
...........*....
....*...........
................
.......*........

Generation = 1, Population = 2.
................
................
................
................
................
..........**....
................
................
................
................

Generation = 2, Population = 0.
................
................
................
................
................
................
................
................
................
................

Generation = 3, Population = 0.
................
................
................
................
................
................
................
................
................
................

Generation = 4, Population = 0.
................
................
................
................
................
................
................
................
................
................

Generation = 5, Population = 0.
................
................
................
................
................
................
................
................
................
................
