9

9 7
9
1 1
6 5
7 5
3 2
3 4
1 4
7 4
4 3
2 4
112 112

9 7
10
0 5
6 0
6 1
6 2
3 5
1 5
1 4
7 3
6 3
6 4
168 168

6 6
10
3 3
0 3
2 4
4 1
2 2
2 1
1 3
1 1
4 4
1 3
117 117

8 9
9
6 0
6 5
6 6
3 2
3 5
6 1
6 2
3 3
6 3
174 174

7 8
9
0 5
0 6
4 0
2 3
4 6
1 1
4 1
1 4
5 5
33 33

7 7
10
5 2
2 3
2 4
0 5
3 0
5 1
3 4
5 3
1 2
5 5
84 84

9 8
9
1 3
7 5
0 6
3 0
2 0
4 5
1 6
6 6
3 1
156 156

6 9
12
4 2
3 7
4 4
1 6
0 0
2 3
3 0
1 3
2 7
3 3
0 6
4 6
197 197

9 7
9
1 1
6 5
7 5
3 2
3 4
1 4
7 3
4 3
2 4
112 112
