8

10 10
30
9 2
5 3
7 5
0 1
5 9
1 9
7 9
9 9
3 4
4 7
0 3
6 2
4 5
4 5
0 3
0 8
3 6
7 3
1 6
0 2
3 2
6 0
7 7
0 4
8 2
3 4
6 7
2 7
5 9
7 7
7 3

7 10
33
5 7
5 6
5 1
1 2
1 8
1 5
0 7
3 7
5 7
6 1
5 9
4 5
2 1
6 0
4 8
6 6
5 2
1 6
3 2
1 8
3 7
0 9
4 6
0 2
5 1
6 3
5 8
3 0
2 7
3 0
5 5
3 7
0 2
13 4

6 10
29
1 6
1 9
2 6
1 4
5 2
4 2
0 8
4 7
1 9
1 6
2 4
1 1
0 7
4 9
5 5
0 5
4 5
5 0
5 3
5 4
4 9
5 3
4 7
0 2
3 5
0 4
3 4
5 9
1 5
12 5

6 10
17
4 8
5 5
0 4
5 8
5 9
2 4
3 8
4 0
1 7
3 6
3 4
1 8
4 2
5 6
0 3
5 7
2 4
2 2

9 10
27
7 3
8 8
7 7
1 7
3 3
6 2
6 5
2 1
6 4
2 9
2 4
3 5
6 4
3 8
6 5
5 8
8 3
5 1
3 7
0 9
7 8
8 8
1 3
6 0
0 2
2 3
3 7
13 5

6 5
7
2 0
3 0
2 2
1 0
0 1
2 2
1 3
18 2

10 10
38
5 2
8 5
6 9
7 7
1 6
5 1
0 8
9 4
4 1
4 3
7 9
4 1
7 9
8 0
3 8
4 3
5 2
2 0
4 1
7 4
1 8
1 0
7 8
3 3
7 9
1 4
9 7
4 4
9 0
0 2
9 7
2 5
4 4
4 1
9 8
8 7
2 4
1 5
20 4

10 8
31
8 1
8 4
7 4
2 7
1 1
5 2
3 7
2 4
6 2
1 6
3 7
1 1
0 2
9 4
9 2
3 3
3 4
7 4
6 0
0 1
0 4
0 6
9 6
3 3
6 5
7 1
6 6
1 1
6 4
9 6
8 3
6 2
