*** Life<ConwayCell> 11x85 ***

Generation = 0, Population = 3.
.....................................................................................
.....................................................................................
.....................................................................................
.............*................................................*........*.............
.....................................................................................
.....................................................................................
.....................................................................................
.....................................................................................
.....................................................................................
.....................................................................................
.....................................................................................

*** Life<ConwayCell> 3x15 ***

Generation = 0, Population = 6.
.....*.......*.
...*.....**....
.........*.....

*** Life<ConwayCell> 9x35 ***

Generation = 0, Population = 4.
..........*........................
.....*.............................
...................................
...................................
......*............................
.................*.................
...................................
...................................
...................................

*** Life<ConwayCell> 4x19 ***

Generation = 0, Population = 2.
.......*...........
........*..........
...................
...................

*** Life<ConwayCell> 3x69 ***

Generation = 0, Population = 10.
.................................*...................................
..*...............*........*...................*.....*..........*....
....................*.........*.........................*............

*** Life<ConwayCell> 4x3 ***

Generation = 0, Population = 5.
.*.
**.
...
.**

*** Life<ConwayCell> 12x5 ***

Generation = 0, Population = 8.
....*
.....
.....
..*..
*....
....*
.....
*..*.
*....
.*...
.....
.....

Generation = 19, Population = 0.
.....
.....
.....
.....
.....
.....
.....
.....
.....
.....
.....
.....

Generation = 38, Population = 0.
.....
.....
.....
.....
.....
.....
.....
.....
.....
.....
.....
.....

Generation = 57, Population = 0.
.....
.....
.....
.....
.....
.....
.....
.....
.....
.....
.....
.....

Generation = 76, Population = 0.
.....
.....
.....
.....
.....
.....
.....
.....
.....
.....
.....
.....

*** Life<ConwayCell> 10x21 ***

Generation = 0, Population = 4.
.....................
...*.................
.....................
.....................
............*........
.......*.............
.....................
.....................
.....................
....................*

*** Life<ConwayCell> 13x91 ***

Generation = 0, Population = 1.
...........................................................................................
...........................................................................................
...........................................................................................
...........................................................................................
...........................................................................................
...........................................................................................
...........................................................................................
...................*.......................................................................
...........................................................................................
...........................................................................................
...........................................................................................
...........................................................................................
...........................................................................................

*** Life<ConwayCell> 11x79 ***

Generation = 0, Population = 9.
............*..................................................................
........................*......................................................
...............................................................................
...............................................................................
.............................*.................................................
........................................*......................................
.............................................*.................................
................*..............................................................
...............................*...............................................
....................................*..........................................
..........................*....................................................

*** Life<ConwayCell> 9x91 ***

Generation = 0, Population = 2.
...........................................................................................
...........................................................................................
...........................................................................................
...........................................................................................
...........................................................................................
..................*........................................................................
...........................................................................................
....................*......................................................................
...........................................................................................

*** Life<ConwayCell> 12x44 ***

Generation = 0, Population = 7.
..............................**............
............................................
............................................
............................................
............................................
............................................
.......................................*....
............................................
............................................
........................................*...
..............*.............................
.............*.........*....................

*** Life<ConwayCell> 13x44 ***

Generation = 0, Population = 1.
............................................
............................................
............................................
............................................
............................................
............................................
............................................
............................................
............................................
............................................
............................................
......*.....................................
............................................

*** Life<ConwayCell> 3x50 ***

Generation = 0, Population = 6.
.........................................*........
..............*...................................
............*......*.................*.......*....

*** Life<ConwayCell> 3x31 ***

Generation = 0, Population = 6.
...........*................*..
.....*............*.....*......
.............*.................

*** Life<ConwayCell> 14x66 ***

Generation = 0, Population = 4.
..................................................................
..................................................................
..................................................................
..................................................................
......................................*...........................
..................................................................
............*.....................*...............................
..................................................................
..................................................................
..................................................................
............................................*.....................
..................................................................
..................................................................
..................................................................

*** Life<ConwayCell> 14x49 ***

Generation = 0, Population = 1.
.................................................
................*................................
.................................................
.................................................
.................................................
.................................................
.................................................
.................................................
.................................................
.................................................
.................................................
.................................................
.................................................
.................................................

Generation = 57, Population = 0.
.................................................
.................................................
.................................................
.................................................
.................................................
.................................................
.................................................
.................................................
.................................................
.................................................
.................................................
.................................................
.................................................
.................................................

*** Life<ConwayCell> 11x37 ***

Generation = 0, Population = 9.
.....................................
*.*..................................
.....................................
....*......................*.........
.....................................
.............................*.......
.....................................
........................*......*.....
............*........................
.....................................
...............................*.....

Generation = 34, Population = 0.
.....................................
.....................................
.....................................
.....................................
.....................................
.....................................
.....................................
.....................................
.....................................
.....................................
.....................................

*** Life<ConwayCell> 13x8 ***

Generation = 0, Population = 7.
...*..*.
........
........
........
........
........
*..*....
........
...*.*..
........
..*.....
........
........

Generation = 41, Population = 0.
........
........
........
........
........
........
........
........
........
........
........
........
........

Generation = 82, Population = 0.
........
........
........
........
........
........
........
........
........
........
........
........
........

*** Life<ConwayCell> 1x31 ***

Generation = 0, Population = 5.
.*.*....*.....*.........*......

Generation = 58, Population = 0.
...............................
