10

2 2
9
0 0
0 0
0 1
0 1
1 0
1 0
1 0
1 1
1 1
5 1

9 9
12
1 7
1 7
4 4
2 7
7 5
7 5
7 5
1 7
4 4
1 7
2 4
0 2
7 2

14 15
11
3 2
13 1
0 11
2 14
0 0
11 4
1 13
1 13
1 13
5 1
1 3
3 1

16 20
12
7 7
2 6
2 6
5 9
5 9
10 15
5 9
1 4
5 9
1 4
9 9
4 6
3 1

6 7
5
1 0
4 5
4 5
3 4
4 0
3 1

17 19
15
3 3
3 3
3 3
6 6
6 6
11 0
11 0
6 6
0 2
0 12
0 12
6 6
4 2
4 2
4 2
3 1

25 24
12
10 0
0 20
14 0
13 2
2 3
4 0
4 2
4 2
4 2
11 13
1 0
1 0
4 2

4 6
9
0 5
2 3
1 3
0 5
0 5
0 5
2 3
3 0
3 0
3 1

10 5
8
6 0
4 2
1 3
1 3
9 3
3 0
3 0
3 0
4 2

4 10
12
1 2
2 7
3 4
2 7
3 4
3 8
3 8
3 8
2 5
3 8
0 5
2 0
5 1
